[
    {
        "type": 0,
        "position": {"x": 127.82, "y": -211.83, "z": 55.23},
        "seller": {
            "model": "s_f_y_shop_low",
            "position": {"x": 127.00, "y": -224.32, "z": 54.56},
            "heading": 60.67
        },
        "dressingRoom": {
            "player": {
                "position": {"x": 119.30, "y": -220.05, "z": 54.56},
                "heading": -109.17
            },
            "camera": {
                "hatsPosition": {"x": 119.90, "y": -220.20, "z": 55.25},
                "topsPosition": {"x": 120.55, "y": -220.30, "z": 54.85},
                "legsPosition": {"x": 120.40, "y": -220.25, "z": 54.10},
                "feetsPosition": {"x": 120.30, "y": -220.20, "z": 53.80},
                "rotation": {"x": 0, "y": 0, "z": 74.72}
            }
        }
    },
    {
        "type": 0,
        "position": {"x": -1201.44, "y": -776.86, "z": 17.99},
        "seller": {
            "model": "u_m_m_aldinapoli",
            "position": {"x": -1194.12, "y": -767.09, "z": 17.32},
            "heading": -149.37
        },
        "dressingRoom": {
            "player": {
                "position": {"x": -1189.70, "y": -774.64, "z": 17.33},
                "heading": 37.89
            },
            "camera": {
                "hatsPosition": {"x": -1190.20, "y": -773.90, "z": 18.05},
                "topsPosition": {"x": -1190.45, "y": -773.60, "z": 17.50},
                "legsPosition": {"x": -1190.45, "y": -773.60, "z": 16.95},
                "feetsPosition": {"x": -1190.45, "y": -773.70, "z": 16.60},
                "rotation": {"x": 0, "y": 0, "z": -147.00}
            }
        }
    },
    {
        "type": 0,
        "position": {"x": 617.25, "y": 2751.0, "z": 42.76},
        "seller": {
            "model": "u_m_m_aldinapoli",
            "position": {"x": 612.95, "y": 2762.45, "z": 42.09},
            "heading": -86.94
        },
        "dressingRoom": {
            "player": {
                "position": {"x": 621.69, "y": 2762.14, "z": 42.09},
                "heading": 94.87
            },
            "camera": {
                "hatsPosition": {"x": 620.65, "y": 2762.10, "z": 42.80},
                "topsPosition": {"x": 620.35, "y": 2762.05, "z": 42.40},
                "legsPosition": {"x": 620.35, "y": 2762.05, "z": 41.70},
                "feetsPosition": {"x": 620.60, "y": 2762.05, "z": 41.35},
                "rotation": {"x": 0, "y": 0, "z": -88.77}
            }
        }
    },
    {
        "type": 0,
        "position": {"x": -3167.75, "y": 1055.54, "z": 21.53},
        "seller": {
            "model": "s_f_y_shop_low",
            "position": {"x": -3169.30, "y": 1043.44, "z": 20.86},
            "heading": 65.70
        },
        "dressingRoom": {
            "player": {
                "position": {"x": -3176.89, "y": 1047.73, "z": 20.86},
                "heading": -112.33
            },
            "camera": {
                "hatsPosition": {"x": -3176.00, "y": 1047.40, "z": 21.60},
                "topsPosition": {"x": -3175.80, "y": 1047.39, "z": 21.10},
                "legsPosition": {"x": -3175.80, "y": 1047.39, "z": 20.40},
                "feetsPosition": {"x": -3175.80, "y": 1047.40, "z": 20.10},
                "rotation": {"x": 0, "y": 0, "z": 69.01}
            }
        }
    },
    {
        "type": 1,
        "position": {"x": -716.68, "y": -155.42, "z": 37.67},
        "seller": {
            "model": "s_f_m_shop_high",
            "position": {"x": -709.12, "y": -151.36, "z": 37.42},
            "heading": 118.87
        },
        "dressingRoom": {
            "player": {
                "position": {"x": -703.59, "y": -150.74, "z": 37.42},
                "heading": 163.95
            },
            "camera": {
                "hatsPosition": {"x": -703.90, "y": -151.65, "z": 38.15},
                "topsPosition": {"x": -704.05, "y": -152.10, "z": 37.70},
                "legsPosition": {"x": -704.00, "y": -152.05, "z": 37.00},
                "feetsPosition": {"x": -703.90, "y": -151.85, "z": 36.65},
                "rotation": {"x": 0, "y": 0, "z": -20.99}
            }
        }
    },
    {
        "type": 1,
        "position": {"x": -1454.78, "y": -231.79, "z": 50.05},
        "seller": {
            "model": "s_f_m_shop_high",
            "position": {"x": -1448.78, "y": -237.85, "z": 49.81},
            "heading": 43.74
        },
        "dressingRoom": {
            "player": {
                "position": {"x": -1446.29, "y": -242.71, "z": 49.82},
                "heading": 98.36
            },
            "camera": {
                "hatsPosition": {"x": -1447.20, "y": -242.80, "z": 50.50},
                "topsPosition": {"x": -1447.60, "y": -242.80, "z": 50.05},
                "legsPosition": {"x": -1447.55, "y": -242.85, "z": 49.40},
                "feetsPosition": {"x": -1447.30, "y": -242.85, "z": 49.00},
                "rotation": {"x": 0, "y": 0, "z": -86.22}
            }
        }
    },
    {
        "type": 1,
        "position": {"x": -157.13, "y": -306.43, "z": 40.00},
        "seller": {
            "model": "s_f_m_shop_high",
            "position": {"x": -165.13, "y": -303.30, "z": 39.73},
            "heading": -111.57
        },
        "dressingRoom": {
            "player": {
                "position": {"x": -169.20, "y": -299.73, "z": 39.73},
                "heading": 286.00
            },
            "camera": {
                "hatsPosition": {"x": -168.30, "y": -299.50, "z": 40.45},
                "topsPosition": {"x": -167.90, "y": -299.30, "z": 40.00},
                "legsPosition": {"x": -167.90, "y": -299.30, "z": 39.30},
                "feetsPosition": {"x": -168.20, "y": -299.35, "z": 38.95},
                "rotation": {"x": 0, "y": 0, "z": 106.97}
            }
        }
    }
]