{
    "male": [
        {"value": 0, "name": "closeShave", "collection": "mpbeach_overlays", "overlay": "FM_Hair_Fuzz"},
        {"value": 1, "name": "buzzcut", "collection": "multiplayer_overlays", "overlay": "NG_M_Hair_001"},
        {"value": 2, "name": "fauxHawk", "collection": "multiplayer_overlays", "overlay": "NG_M_Hair_002"},
        {"value": 3, "name": "hipster", "collection": "multiplayer_overlays", "overlay": "NG_M_Hair_003"},
        {"value": 4, "name": "sideParting", "collection": "multiplayer_overlays", "overlay": "NG_M_Hair_004"},
        {"value": 5, "name": "shorterCut", "collection": "multiplayer_overlays", "overlay": "NG_M_Hair_005"},
        {"value": 6, "name": "biker", "collection": "multiplayer_overlays", "overlay": "NG_M_Hair_006"},
        {"value": 7, "name": "ponytail", "collection": "multiplayer_overlays", "overlay": "NG_M_Hair_007"},
        {"value": 8, "name": "cornrows", "collection": "multiplayer_overlays", "overlay": "NG_M_Hair_008"},
        {"value": 9, "name": "slicked", "collection": "multiplayer_overlays", "overlay": "NG_M_Hair_009"},
        {"value": 10, "name": "shortBrushed", "collection": "multiplayer_overlays", "overlay": "NG_M_Hair_013"},
        {"value": 11, "name": "spikey", "collection": "multiplayer_overlays", "overlay": "NG_M_Hair_002"},
        {"value": 12, "name": "caesar", "collection": "multiplayer_overlays", "overlay": "NG_M_Hair_011"},
        {"value": 13, "name": "chopped", "collection": "multiplayer_overlays", "overlay": "NG_M_Hair_012"},
        {"value": 14, "name": "dreads", "collection": "multiplayer_overlays", "overlay": "NG_M_Hair_014"},
        {"value": 15, "name": "longHair", "collection": "multiplayer_overlays", "overlay": "NG_M_Hair_015"},
        {"value": 16, "name": "shaggyCurls", "collection": "multiplayer_overlays", "overlay": "NGBea_M_Hair_000"},
        {"value": 17, "name": "surferDude", "collection": "multiplayer_overlays", "overlay": "NGBea_M_Hair_001"},
        {"value": 18, "name": "shortSide", "collection": "multiplayer_overlays", "overlay": "NGBus_M_Hair_000"},
        {"value": 19, "name": "slickedSides", "collection": "multiplayer_overlays", "overlay": "NGBus_M_Hair_001"},
        {"value": 20, "name": "longSlicked", "collection": "multiplayer_overlays", "overlay": "NGHip_M_Hair_000"},
        {"value": 21, "name": "hipsterYouth", "collection": "multiplayer_overlays", "overlay": "NGHip_M_Hair_001"},
        {"value": 22, "name": "mullet", "collection": "multiplayer_overlays", "overlay": "NGInd_M_Hair_000"},
        {"value": 24, "name": "classicCornrows", "collection": "mplowrider_overlays", "overlay": "LR_M_Hair_000"},
        {"value": 25, "name": "palmCornrows", "collection": "mplowrider_overlays", "overlay": "LR_M_Hair_001"},
        {"value": 26, "name": "lightCornrows", "collection": "mplowrider_overlays", "overlay": "LR_M_Hair_002"},
        {"value": 27, "name": "whippedCornrows", "collection": "mplowrider_overlays", "overlay": "LR_M_Hair_003"},
        {"value": 28, "name": "zigZagCornrows", "collection": "mplowrider2_overlays", "overlay": "LR_M_Hair_004"},
        {"value": 29, "name": "snailCornrows", "collection": "mplowrider2_overlays", "overlay": "LR_M_Hair_005"},
        {"value": 30, "name": "hightop", "collection": "mplowrider2_overlays", "overlay": "LR_M_Hair_006"},
        {"value": 31, "name": "looseSweptBack", "collection": "mpbiker_overlays", "overlay": "MP_Biker_Hair_000_M"},
        {"value": 32, "name": "undercutSweptBack", "collection": "mpbiker_overlays", "overlay": "MP_Biker_Hair_001_M"},
        {"value": 33, "name": "undercutSweptSide", "collection": "mpbiker_overlays", "overlay": "MP_Biker_Hair_002_M"},
        {"value": 34, "name": "spikedMohawk", "collection": "mpbiker_overlays", "overlay": "MP_Biker_Hair_003_M"},
        {"value": 35, "name": "mod", "collection": "mpbiker_overlays", "overlay": "MP_Biker_Hair_004_M"},
        {"value": 36, "name": "layeredMod", "collection": "mpbiker_overlays", "overlay": "MP_Biker_Hair_005_M"},
        {"value": 72, "name": "flattop", "collection": "mpgunrunning_overlays", "overlay": "MP_Gunrunning_Hair_M_000_M"},
        {"value": 73, "name": "militaryBuzzcut", "collection": "mpgunrunning_overlays", "overlay": "MP_Gunrunning_Hair_M_001_M"}
    ],
    "female": [
        {"value": 0, "name": "closeShave", "collection": "mpbeach_overlays", "overlay": "FM_Hair_Fuzz"},
        {"value": 1, "name": "short", "collection": "multiplayer_overlays", "overlay": "NG_F_Hair_001"},
        {"value": 2, "name": "layeredBob", "collection": "multiplayer_overlays", "overlay": "NG_F_Hair_002"},
        {"value": 3, "name": "pigtails", "collection": "multiplayer_overlays", "overlay": "NG_F_Hair_003"},
        {"value": 4, "name": "ponytail", "collection": "multiplayer_overlays", "overlay": "NG_F_Hair_004"},
        {"value": 5, "name": "braidedMohawk", "collection": "multiplayer_overlays", "overlay": "NG_F_Hair_005"},
        {"value": 6, "name": "braids", "collection": "multiplayer_overlays", "overlay": "NG_F_Hair_006"},
        {"value": 7, "name": "bob", "collection": "multiplayer_overlays", "overlay": "NG_F_Hair_007"},
        {"value": 8, "name": "fauxHawk", "collection": "multiplayer_overlays", "overlay": "NG_F_Hair_008"},
        {"value": 9, "name": "frenchTwist", "collection": "multiplayer_overlays", "overlay": "NG_F_Hair_009"},
        {"value": 10, "name": "longBob", "collection": "multiplayer_overlays", "overlay": "NG_F_Hair_010"},
        {"value": 11, "name": "looseTied", "collection": "multiplayer_overlays", "overlay": "NG_F_Hair_011"},
        {"value": 12, "name": "pixie", "collection": "multiplayer_overlays", "overlay": "NG_F_Hair_012"},
        {"value": 13, "name": "shavedBangs", "collection": "multiplayer_overlays", "overlay": "NG_F_Hair_013"},
        {"value": 14, "name": "topKnot", "collection": "multiplayer_overlays", "overlay": "NG_M_Hair_014"},
        {"value": 15, "name": "wavyBob", "collection": "multiplayer_overlays", "overlay": "NG_M_Hair_015"},
        {"value": 16, "name": "messyBun", "collection": "multiplayer_overlays", "overlay": "NGBea_F_Hair_000"},
        {"value": 17, "name": "pinUpGirl", "collection": "multiplayer_overlays", "overlay": "NGBea_F_Hair_001"},
        {"value": 18, "name": "tightBun", "collection": "multiplayer_overlays", "overlay": "NG_F_Hair_007"},
        {"value": 19, "name": "twistedBob", "collection": "multiplayer_overlays", "overlay": "NGBus_F_Hair_000"},
        {"value": 20, "name": "flapperBob", "collection": "multiplayer_overlays", "overlay": "NGBus_F_Hair_001"},
        {"value": 21, "name": "bigBang", "collection": "multiplayer_overlays", "overlay": "NGBea_F_Hair_001"},
        {"value": 22, "name": "braidedTopKnot", "collection": "multiplayer_overlays", "overlay": "NGHip_F_Hair_000"},
        {"value": 23, "name": "mullet", "collection": "multiplayer_overlays", "overlay": "NGInd_F_Hair_000"},
        {"value": 25, "name": "pinchedCornrows", "collection": "mplowrider_overlays", "overlay": "LR_F_Hair_000"},
        {"value": 26, "name": "leafCornrows", "collection": "mplowrider_overlays", "overlay": "LR_F_Hair_001"},
        {"value": 27, "name": "zigZagCornrows", "collection": "mplowrider_overlays", "overlay": "LR_F_Hair_002"},
        {"value": 28, "name": "pigtailBangs", "collection": "mplowrider2_overlays", "overlay": "LR_F_Hair_003"},
        {"value": 29, "name": "waveBraids", "collection": "mplowrider2_overlays", "overlay": "LR_F_Hair_003"},
        {"value": 30, "name": "coilBraids", "collection": "mplowrider2_overlays", "overlay": "LR_F_Hair_004"},
        {"value": 31, "name": "rolledQuiff", "collection": "mplowrider2_overlays", "overlay": "LR_F_Hair_006"},
        {"value": 32, "name": "looseSweptBack", "collection": "mpbiker_overlays", "overlay": "MP_Biker_Hair_000_F"},
        {"value": 33, "name": "undercutSweptBack", "collection": "mpbiker_overlays", "overlay": "MP_Biker_Hair_001_F"},
        {"value": 34, "name": "undercutSweptSide", "collection": "mpbiker_overlays", "overlay": "MP_Biker_Hair_002_F"},
        {"value": 35, "name": "spikedMohawk", "collection": "mpbiker_overlays", "overlay": "MP_Biker_Hair_003_F"},
        {"value": 36, "name": "bandana", "collection": "multiplayer_overlays", "overlay": "NG_F_Hair_003"},
        {"value": 37, "name": "layeredMod", "collection": "mpbiker_overlays", "overlay": "MP_Biker_Hair_006_F"},
        {"value": 38, "name": "skinbyrd", "collection": "mpbiker_overlays", "overlay": "MP_Biker_Hair_004_F"},
        {"value": 76, "name": "neatBun", "collection": "mpgunrunning_overlays", "overlay": "MP_Gunrunning_Hair_F_000_F"},
        {"value": 77, "name": "shortBob", "collection": "mpgunrunning_overlays", "overlay": "MP_Gunrunning_Hair_F_001_F"}
    ]
}