{
    "targets": [
        {"model": "cs_barry", "position": {"x": -1871.46, "y": -339.22, "z": 49.42}, "heading": 167.81},
        {"model": "ig_abigail", "position": {"x": -1275.41, "y": 303.74, "z": 64.99}, "heading": 114.83},
        {"model": "s_m_m_prisguard_01", "position": {"x": -339.18, "y": 267.36, "z": 85.69}, "heading": -82.28},
        {"model": "ig_money", "position": {"x": 230.13, "y": 337.90, "z": 105.54}, "heading": -24.91},
        {"model": "ig_dale", "position": {"x": 923.62, "y": 41.22, "z": 80.90}, "heading": 56.11},
        {"model": "a_f_m_eastsa_02", "position": {"x": 1046.32, "y": -496.12, "z": 64.08}, "heading": -102.13},
        {"model": "a_m_y_business_01", "position": {"x": 222.36, "y": -381.44, "z": 44.43}, "heading": -11.24},
        {"model": "a_f_y_eastsa_01", "position": {"x": -247.83, "y": -318.84, "z": 29.99}, "heading": 102.60},
        {"model": "a_m_y_soucent_01", "position": {"x": -785.43, "y": -391.37, "z": 37.10}, "heading": 155.26},
        {"model": "ig_stretch", "position": {"x": 1284.93, "y": -651.55, "z": 67.47}, "heading": 30.44},
        {"model": "a_m_m_genfat_01", "position": {"x": -1335.73, "y": -936.56, "z": 11.35}, "heading": -42.75},
        {"model": "a_m_y_musclbeac_02", "position": {"x": -1207.70, "y": -1554.84, "z": 4.37}, "heading": 7.59},
        {"model": "g_m_m_korboss_01", "position": {"x": -767.18, "y": -1058.59, "z": 13.48}, "heading": -157.24},
        {"model": "a_m_y_hipster_01", "position": {"x": -253.19, "y": -979.58, "z": 31.22}, "heading": 99.64},
        {"model": "a_f_y_tourist_01", "position": {"x": 187.59, "y": -953.41, "z": 30.09}, "heading": -38.60},
        {"model": "ig_mrsphillips", "position": {"x": 873.62, "y": -1015.17, "z": 31.13}, "heading": 3.50},
        {"model": "s_m_y_construct_02", "position": {"x": 1208.04, "y": -1304.32, "z": 35.23}, "heading": -9.41},
        {"model": "mp_m_exarmy_01", "position": {"x": 1297.02, "y": -1738.45, "z": 53.88}, "heading": -36.23},
        {"model": "ig_josef", "position": {"x": 957.31, "y": -2105.41, "z": 30.63}, "heading": 94.06},
        {"model": "s_m_y_construct_01", "position": {"x": 778.45, "y": -2382.92, "z": 22.21}, "heading": 87.61},
        {"model": "s_m_y_dealer_01", "position": {"x": 417.02, "y": -2058.52, "z": 22.13}, "heading": 138.46},
        {"model": "a_f_m_downtown_01", "position": {"x": -83.05, "y": -1646.03, "z": 29.31}, "heading": -126.91},
        {"model": "ig_car3guy2", "position": {"x": -201.73, "y": -1379.68, "z": 31.26}, "heading": -146.13},
        {"model": "s_m_y_airworker", "position": {"x": 21.76, "y": -366.68, "z": 39.31}, "heading": -104.53}
    ],

    "vehicles": [
        {"model": "faggio", "position": {"x": 148.86, "y": -1443.76, "z": 28.91}, "heading": 317.70},
        {"model": "faggio", "position": {"x": 151.88, "y": -1446.30, "z": 28.91}, "heading": 317.70},
        {"model": "faggio", "position": {"x": 154.41, "y": -1448.58, "z": 28.91}, "heading": 317.70},
        {"model": "faggio", "position": {"x": 157.04, "y": -1450.67, "z": 28.91}, "heading": 317.70},
        {"model": "faggio", "position": {"x": 159.73, "y": -1453.10, "z": 28.91}, "heading": 317.70},
        {"model": "faggio", "position": {"x": 162.47, "y": -1455.14, "z": 28.91}, "heading": 317.70},
        {"model": "faggio", "position": {"x": 165.07, "y": -1457.37, "z": 28.91}, "heading": 317.70},
        {"model": "faggio", "position": {"x": 167.67, "y": -1459.68, "z": 28.91}, "heading": 317.70},
        {"model": "faggio", "position": {"x": 170.02, "y": -1461.85, "z": 28.91}, "heading": 317.70},
        {"model": "faggio", "position": {"x": 172.98, "y": -1464.12, "z": 28.91}, "heading": 317.70}
    ]
}