{
    "npcs": [
        {
            "model": "s_m_y_airworker",
            "position": {"x": -1536.49, "y": -3192.63, "z": 13.94},
            "heading": 24.72,
            "name": "airWorker",
            "contracts": [0, 2, 4, 6, 8]
        },
        {
            "model": "s_m_y_armymech_01",
            "position": {"x": 1760.02, "y": 3296.54, "z": 41.14},
            "heading": 159.75,
            "name": "airMech",
            "contracts": [1]
        },
        {
            "model": "a_m_m_farmer_01",
            "position": {"x": 2119.32, "y": 4788.77, "z": 41.15},
            "heading": 40.39,
            "name": "airFarmer",
            "contracts": [3, 7]
        },
        {
            "model": "s_m_y_blackops_01",
            "position": {"x": -1911.19, "y": 2981.88, "z": 32.81},
            "heading": 153.25,
            "name": "airMilitary",
            "contracts": [5, 9]
        }
    ],

    "planes": [
        {"model": "mammatus", "position": {"x": -1548.73, "y": -3105.91, "z": 14.29}, "heading": -29.91},
        {"model": "mammatus", "position": {"x": -1566.59, "y": -3096.09, "z": 14.29}, "heading": -29.63},
        {"model": "mammatus", "position": {"x": -1583.76, "y": -3085.26, "z": 14.29}, "heading": -28.93},
        {"model": "duster", "position": {"x": -1423.74, "y": -3177.76, "z": 14.29}, "heading": -28.78},
        {"model": "duster", "position": {"x": -1405.38, "y": -3188.37, "z": 14.29}, "heading": -29.12},
        {"model": "duster", "position": {"x": -1382.78, "y": -3201.57, "z": 14.29}, "heading": -28.23},
        {"model": "seabreeze", "position": {"x": -1632.91, "y": -3146.41, "z": 14.64}, "heading": -30.38},
        {"model": "seabreeze", "position": {"x": -1664.64, "y": -3127.41, "z": 14.64}, "heading": -27.60},
        {"model": "seabreeze", "position": {"x": -1648.43, "y": -3136.38, "z": 14.64}, "heading": -29.78},
        {"model": "vestra", "position": {"x": -1254.13, "y": -3386.87, "z": 14.54}, "heading": -29.94},
        {"model": "vestra", "position": {"x": -1262.67, "y": -3402.16, "z": 14.54}, "heading": -30.56},
        {"model": "nimbus", "position": {"x": -1285.58, "y": -3368.00, "z": 14.54}, "heading": -28.27},
        {"model": "nimbus", "position": {"x": -1272.00, "y": -3381.63, "z": 14.54}, "heading": -29.64},
        {"model": "duster", "position": {"x": 1730.01, "y": 3314.55, "z": 41.57}, "heading": -164.28},
        {"model": "duster", "position": {"x": 1733.09, "y": 3303.67, "z": 41.57}, "heading": -164.76},
        {"model": "mammatus", "position": {"x": 1696.72, "y": 3280.30, "z": 41.48}, "heading": 36.31},
        {"model": "seabreeze", "position": {"x": 1752.28, "y": 3235.92, "z": 42.36}, "heading": -168.52},
        {"model": "duster", "position": {"x": 2132.89, "y": 4785.37, "z": 41.32}, "heading": 27.68},
        {"model": "mammatus", "position": {"x": 2141.57, "y": 4819.99, "z": 41.59}, "heading": 120.32},
        {"model": "seabreeze", "position": {"x": 2066.870, "y": 4752.04, "z": 41.81}, "heading": 25.46},
        {"model": "vestra", "position": {"x": -1840.91, "y": 2961.75, "z": 33.41}, "heading": 61.58},
        {"model": "vestra", "position": {"x": -1832.13, "y": 2976.85, "z": 33.41}, "heading": 59.56},
        {"model": "nimbus", "position": {"x": -1823.08, "y": 2993.34, "z": 33.41}, "heading": 62.45}
    ]
}